{
    "cartItems": [
        {
            "img": "img/Capture.JPG",
            "name": "SOLID GREEN COTON TSHIRT",
            "style": "MS13KT1906",
            "color": "Green",
            "size": "S",
            "qty": 1,
            "price": 120
        },
        {
            "img": "img/pink.png",
            "name": "PINK RAINBOW PRINT TSHIRT",
            "style": "MS13KT1907",
            "color": "Red",
            "size": "B",
            "qty": 1,
            "price": 90
        },
        {
            "img": "img/white.png",
            "name": "BLUE FLOWER PATTERN SHIRT",
            "style": "MS13KT1908",
            "color": "Yellow",
            "size": "L",
            "qty": 1,
            "price": 110
        }
    ],
    "heading": "your shopping bag"
}